%YAML 1.1
%TAG !u! tag:unity3d.com,2011:
--- !u!1 &1525791267556343712
GameObject:
  m_ObjectHideFlags: 0
  m_CorrespondingSourceObject: {fileID: 0}
  m_PrefabInstance: {fileID: 0}
  m_PrefabAsset: {fileID: 0}
  serializedVersion: 6
  m_Component:
  - component: {fileID: 7330649995320952605}
  - component: {fileID: 3253035761657487332}
  - component: {fileID: 2982301142739731944}
  m_Layer: 5
  m_Name: Background
  m_TagString: Untagged
  m_Icon: {fileID: 0}
  m_NavMeshLayer: 0
  m_StaticEditorFlags: 0
  m_IsActive: 1
--- !u!224 &7330649995320952605
RectTransform:
  m_ObjectHideFlags: 0
  m_CorrespondingSourceObject: {fileID: 0}
  m_PrefabInstance: {fileID: 0}
  m_PrefabAsset: {fileID: 0}
  m_GameObject: {fileID: 1525791267556343712}
  m_LocalRotation: {x: 0, y: 0, z: 0, w: 1}
  m_LocalPosition: {x: 0, y: 0, z: 0}
  m_LocalScale: {x: 1, y: 1, z: 1}
  m_Children: []
  m_Father: {fileID: 8647055997322636740}
  m_RootOrder: 0
  m_LocalEulerAnglesHint: {x: 0, y: 0, z: 0}
  m_AnchorMin: {x: 0, y: 0}
  m_AnchorMax: {x: 1, y: 1}
  m_AnchoredPosition: {x: 0, y: 0}
  m_SizeDelta: {x: 0, y: 0}
  m_Pivot: {x: 0.5, y: 0.5}
--- !u!222 &3253035761657487332
CanvasRenderer:
  m_ObjectHideFlags: 0
  m_CorrespondingSourceObject: {fileID: 0}
  m_PrefabInstance: {fileID: 0}
  m_PrefabAsset: {fileID: 0}
  m_GameObject: {fileID: 1525791267556343712}
  m_CullTransparentMesh: 1
--- !u!114 &2982301142739731944
MonoBehaviour:
  m_ObjectHideFlags: 0
  m_CorrespondingSourceObject: {fileID: 0}
  m_PrefabInstance: {fileID: 0}
  m_PrefabAsset: {fileID: 0}
  m_GameObject: {fileID: 1525791267556343712}
  m_Enabled: 1
  m_EditorHideFlags: 0
  m_Script: {fileID: 11500000, guid: fe87c0e1cc204ed48ad3b37840f39efc, type: 3}
  m_Name: 
  m_EditorClassIdentifier: 
  m_Material: {fileID: 0}
  m_Color: {r: 0, g: 0, b: 0, a: 1}
  m_RaycastTarget: 1
  m_RaycastPadding: {x: 0, y: 0, z: 0, w: 0}
  m_Maskable: 1
  m_OnCullStateChanged:
    m_PersistentCalls:
      m_Calls: []
  m_Sprite: {fileID: 0}
  m_Type: 0
  m_PreserveAspect: 0
  m_FillCenter: 1
  m_FillMethod: 4
  m_FillAmount: 1
  m_FillClockwise: 1
  m_FillOrigin: 0
  m_UseSpriteMesh: 0
  m_PixelsPerUnitMultiplier: 1
--- !u!1001 &1678379601050608429
PrefabInstance:
  m_ObjectHideFlags: 0
  serializedVersion: 2
  m_Modification:
    m_TransformParent: {fileID: 8647055997322636740}
    m_Modifications:
    - target: {fileID: 5240328975336572283, guid: a8f0c6935534f9e4b898180e56d00961, type: 3}
      propertyPath: m_text
      value: Loading
      objectReference: {fileID: 0}
    - target: {fileID: 5240328975336572283, guid: a8f0c6935534f9e4b898180e56d00961, type: 3}
      propertyPath: m_fontSize
      value: 18
      objectReference: {fileID: 0}
    - target: {fileID: 5240328975336572283, guid: a8f0c6935534f9e4b898180e56d00961, type: 3}
      propertyPath: m_fontStyle
      value: 16
      objectReference: {fileID: 0}
    - target: {fileID: 5240328975336572283, guid: a8f0c6935534f9e4b898180e56d00961, type: 3}
      propertyPath: m_fontSizeBase
      value: 18
      objectReference: {fileID: 0}
    - target: {fileID: 5240328975336572283, guid: a8f0c6935534f9e4b898180e56d00961, type: 3}
      propertyPath: m_VerticalAlignment
      value: 512
      objectReference: {fileID: 0}
    - target: {fileID: 5240328975336572283, guid: a8f0c6935534f9e4b898180e56d00961, type: 3}
      propertyPath: m_enableWordWrapping
      value: 0
      objectReference: {fileID: 0}
    - target: {fileID: 5240328975336572283, guid: a8f0c6935534f9e4b898180e56d00961, type: 3}
      propertyPath: m_HorizontalAlignment
      value: 2
      objectReference: {fileID: 0}
    - target: {fileID: 5738331261813595840, guid: a8f0c6935534f9e4b898180e56d00961, type: 3}
      propertyPath: m_Name
      value: Text
      objectReference: {fileID: 0}
    - target: {fileID: 6145119079278704836, guid: a8f0c6935534f9e4b898180e56d00961, type: 3}
      propertyPath: m_Pivot.x
      value: 0.5
      objectReference: {fileID: 0}
    - target: {fileID: 6145119079278704836, guid: a8f0c6935534f9e4b898180e56d00961, type: 3}
      propertyPath: m_Pivot.y
      value: 0.5
      objectReference: {fileID: 0}
    - target: {fileID: 6145119079278704836, guid: a8f0c6935534f9e4b898180e56d00961, type: 3}
      propertyPath: m_RootOrder
      value: 1
      objectReference: {fileID: 0}
    - target: {fileID: 6145119079278704836, guid: a8f0c6935534f9e4b898180e56d00961, type: 3}
      propertyPath: m_AnchorMax.x
      value: 0.5
      objectReference: {fileID: 0}
    - target: {fileID: 6145119079278704836, guid: a8f0c6935534f9e4b898180e56d00961, type: 3}
      propertyPath: m_AnchorMax.y
      value: 0.5
      objectReference: {fileID: 0}
    - target: {fileID: 6145119079278704836, guid: a8f0c6935534f9e4b898180e56d00961, type: 3}
      propertyPath: m_AnchorMin.x
      value: 0.5
      objectReference: {fileID: 0}
    - target: {fileID: 6145119079278704836, guid: a8f0c6935534f9e4b898180e56d00961, type: 3}
      propertyPath: m_AnchorMin.y
      value: 0.5
      objectReference: {fileID: 0}
    - target: {fileID: 6145119079278704836, guid: a8f0c6935534f9e4b898180e56d00961, type: 3}
      propertyPath: m_SizeDelta.x
      value: 200
      objectReference: {fileID: 0}
    - target: {fileID: 6145119079278704836, guid: a8f0c6935534f9e4b898180e56d00961, type: 3}
      propertyPath: m_SizeDelta.y
      value: 50
      objectReference: {fileID: 0}
    - target: {fileID: 6145119079278704836, guid: a8f0c6935534f9e4b898180e56d00961, type: 3}
      propertyPath: m_LocalPosition.x
      value: 0
      objectReference: {fileID: 0}
    - target: {fileID: 6145119079278704836, guid: a8f0c6935534f9e4b898180e56d00961, type: 3}
      propertyPath: m_LocalPosition.y
      value: 0
      objectReference: {fileID: 0}
    - target: {fileID: 6145119079278704836, guid: a8f0c6935534f9e4b898180e56d00961, type: 3}
      propertyPath: m_LocalPosition.z
      value: 0
      objectReference: {fileID: 0}
    - target: {fileID: 6145119079278704836, guid: a8f0c6935534f9e4b898180e56d00961, type: 3}
      propertyPath: m_LocalRotation.w
      value: 1
      objectReference: {fileID: 0}
    - target: {fileID: 6145119079278704836, guid: a8f0c6935534f9e4b898180e56d00961, type: 3}
      propertyPath: m_LocalRotation.x
      value: 0
      objectReference: {fileID: 0}
    - target: {fileID: 6145119079278704836, guid: a8f0c6935534f9e4b898180e56d00961, type: 3}
      propertyPath: m_LocalRotation.y
      value: 0
      objectReference: {fileID: 0}
    - target: {fileID: 6145119079278704836, guid: a8f0c6935534f9e4b898180e56d00961, type: 3}
      propertyPath: m_LocalRotation.z
      value: 0
      objectReference: {fileID: 0}
    - target: {fileID: 6145119079278704836, guid: a8f0c6935534f9e4b898180e56d00961, type: 3}
      propertyPath: m_AnchoredPosition.x
      value: 0
      objectReference: {fileID: 0}
    - target: {fileID: 6145119079278704836, guid: a8f0c6935534f9e4b898180e56d00961, type: 3}
      propertyPath: m_AnchoredPosition.y
      value: 0
      objectReference: {fileID: 0}
    - target: {fileID: 6145119079278704836, guid: a8f0c6935534f9e4b898180e56d00961, type: 3}
      propertyPath: m_LocalEulerAnglesHint.x
      value: 0
      objectReference: {fileID: 0}
    - target: {fileID: 6145119079278704836, guid: a8f0c6935534f9e4b898180e56d00961, type: 3}
      propertyPath: m_LocalEulerAnglesHint.y
      value: 0
      objectReference: {fileID: 0}
    - target: {fileID: 6145119079278704836, guid: a8f0c6935534f9e4b898180e56d00961, type: 3}
      propertyPath: m_LocalEulerAnglesHint.z
      value: 0
      objectReference: {fileID: 0}
    m_RemovedComponents: []
  m_SourcePrefab: {fileID: 100100000, guid: a8f0c6935534f9e4b898180e56d00961, type: 3}
--- !u!1001 &6818487609840927884
PrefabInstance:
  m_ObjectHideFlags: 0
  serializedVersion: 2
  m_Modification:
    m_TransformParent: {fileID: 0}
    m_Modifications:
    - target: {fileID: 2783402447407360328, guid: 6bae61f45c6992c45b6f68ba7600ff9f, type: 3}
      propertyPath: m_Pivot.x
      value: 0.5
      objectReference: {fileID: 0}
    - target: {fileID: 2783402447407360328, guid: 6bae61f45c6992c45b6f68ba7600ff9f, type: 3}
      propertyPath: m_Pivot.y
      value: 0.5
      objectReference: {fileID: 0}
    - target: {fileID: 2783402447407360328, guid: 6bae61f45c6992c45b6f68ba7600ff9f, type: 3}
      propertyPath: m_RootOrder
      value: 0
      objectReference: {fileID: 0}
    - target: {fileID: 2783402447407360328, guid: 6bae61f45c6992c45b6f68ba7600ff9f, type: 3}
      propertyPath: m_AnchorMax.x
      value: 1
      objectReference: {fileID: 0}
    - target: {fileID: 2783402447407360328, guid: 6bae61f45c6992c45b6f68ba7600ff9f, type: 3}
      propertyPath: m_AnchorMax.y
      value: 1
      objectReference: {fileID: 0}
    - target: {fileID: 2783402447407360328, guid: 6bae61f45c6992c45b6f68ba7600ff9f, type: 3}
      propertyPath: m_AnchorMin.x
      value: 0
      objectReference: {fileID: 0}
    - target: {fileID: 2783402447407360328, guid: 6bae61f45c6992c45b6f68ba7600ff9f, type: 3}
      propertyPath: m_AnchorMin.y
      value: 0
      objectReference: {fileID: 0}
    - target: {fileID: 2783402447407360328, guid: 6bae61f45c6992c45b6f68ba7600ff9f, type: 3}
      propertyPath: m_SizeDelta.x
      value: 0
      objectReference: {fileID: 0}
    - target: {fileID: 2783402447407360328, guid: 6bae61f45c6992c45b6f68ba7600ff9f, type: 3}
      propertyPath: m_SizeDelta.y
      value: 0
      objectReference: {fileID: 0}
    - target: {fileID: 2783402447407360328, guid: 6bae61f45c6992c45b6f68ba7600ff9f, type: 3}
      propertyPath: m_LocalPosition.x
      value: 0
      objectReference: {fileID: 0}
    - target: {fileID: 2783402447407360328, guid: 6bae61f45c6992c45b6f68ba7600ff9f, type: 3}
      propertyPath: m_LocalPosition.y
      value: 0
      objectReference: {fileID: 0}
    - target: {fileID: 2783402447407360328, guid: 6bae61f45c6992c45b6f68ba7600ff9f, type: 3}
      propertyPath: m_LocalPosition.z
      value: 0
      objectReference: {fileID: 0}
    - target: {fileID: 2783402447407360328, guid: 6bae61f45c6992c45b6f68ba7600ff9f, type: 3}
      propertyPath: m_LocalRotation.w
      value: 1
      objectReference: {fileID: 0}
    - target: {fileID: 2783402447407360328, guid: 6bae61f45c6992c45b6f68ba7600ff9f, type: 3}
      propertyPath: m_LocalRotation.x
      value: 0
      objectReference: {fileID: 0}
    - target: {fileID: 2783402447407360328, guid: 6bae61f45c6992c45b6f68ba7600ff9f, type: 3}
      propertyPath: m_LocalRotation.y
      value: 0
      objectReference: {fileID: 0}
    - target: {fileID: 2783402447407360328, guid: 6bae61f45c6992c45b6f68ba7600ff9f, type: 3}
      propertyPath: m_LocalRotation.z
      value: 0
      objectReference: {fileID: 0}
    - target: {fileID: 2783402447407360328, guid: 6bae61f45c6992c45b6f68ba7600ff9f, type: 3}
      propertyPath: m_AnchoredPosition.x
      value: 0
      objectReference: {fileID: 0}
    - target: {fileID: 2783402447407360328, guid: 6bae61f45c6992c45b6f68ba7600ff9f, type: 3}
      propertyPath: m_AnchoredPosition.y
      value: 0
      objectReference: {fileID: 0}
    - target: {fileID: 2783402447407360328, guid: 6bae61f45c6992c45b6f68ba7600ff9f, type: 3}
      propertyPath: m_LocalEulerAnglesHint.x
      value: 0
      objectReference: {fileID: 0}
    - target: {fileID: 2783402447407360328, guid: 6bae61f45c6992c45b6f68ba7600ff9f, type: 3}
      propertyPath: m_LocalEulerAnglesHint.y
      value: 0
      objectReference: {fileID: 0}
    - target: {fileID: 2783402447407360328, guid: 6bae61f45c6992c45b6f68ba7600ff9f, type: 3}
      propertyPath: m_LocalEulerAnglesHint.z
      value: 0
      objectReference: {fileID: 0}
    - target: {fileID: 5152424960311836205, guid: 6bae61f45c6992c45b6f68ba7600ff9f, type: 3}
      propertyPath: m_Name
      value: LoadingPanel
      objectReference: {fileID: 0}
    m_RemovedComponents: []
  m_SourcePrefab: {fileID: 100100000, guid: 6bae61f45c6992c45b6f68ba7600ff9f, type: 3}
--- !u!224 &8647055997322636740 stripped
RectTransform:
  m_CorrespondingSourceObject: {fileID: 2783402447407360328, guid: 6bae61f45c6992c45b6f68ba7600ff9f, type: 3}
  m_PrefabInstance: {fileID: 6818487609840927884}
  m_PrefabAsset: {fileID: 0}
